 1040  cd 
 1041  sudo apt install tomcat8
 1042  sudo apt autoremove 
 1043  sudo apt install tomcat8
 1044  sudo apt remove 8.5.21-1ubuntu1.1
 1045  sudo apt autoremove 
 1046  sudo apt install tomcat8
 1047  sudo apt remove tomcat8-common 
 1048  sudo apt remove tomcat8
 1049  sudo apt autoremove 
 1050  sudo apt remove tomcat8
 1051  sudo apt remove tomcat8-common 
 1052  sudo apt install tomcat8
 1053  service tomcat8 
 1054  sudo service tomcat8 
 1055  sudo service tomcat8 start
 1056  cd /var/
 1057  ls
 1058  cd log/
 1059  ls
 1060  cd tomcat8/
 1061  ls
 1062  nano localhost_access_log.2018-06-07.txt 
 1063  nano localhost.2018-06-07.log 
 1064  cat catalina.
 1065  cat catalina.out 
 1066  cd /etc/systemd/system/
 1067  ls
 1068  cd 
 1069  ls
 1070  sudo apt-get install tomcat8
 1071  cd /etc/init.d/
 1072  ls
 1073  rm tomcat8 
 1074  sudo rm tomcat8 
 1075  ls
 1076  cd 
 1077  sudo apt-get install tomcat8
 1078  cd /etc/init.d/
 1079  ls
 1080  cd 
 1081  sudo apt remove tomcat8
 1082  sudo apt autoremove 
 1083  sudo apt install tomcat8
 1084  tomcat
 1085  tomcat8
 1086  cd /etc/init.d/
 1087  ls
 1088  cd 
 1089  sudo apt install com.sun.jersey
 1090  sudo apt-cache search  com.sun.jersey
 1091  sudo apt-cache search jersey
 1092  cd /var/lib/tomcat8/
 1093  ls
 1094  cd conf
 1095  ls
 1096  cd ..
 1097  ls -la
 1098  # chown -R tomcat:tomcat /opt/tomcat
 1099  chmod -R g+r /opt/tomcat/conf
 1100  cd /opt
 1101  ls
 1102  # chown -R tomcat:tomcat /var/lib/tomcat8/
 1103  chmod -R g+r /var/lib/tomcat8/conf
 1104  sudo chmod -R g+r /var/lib/tomcat8/conf
 1105  chmod -R g+w /opt/tomcat/logs
 1106  # chmod -R g+w /opt/tomcat/temp
 1107  # chmod -R g+w /opt/tomcat/webapps
 1108  chmod -R g+w /opt/tomcat
 1109  chmod -R g+s /var/lib/tomcat8/conf
 1110  sudo chmod -R g+s /var/lib/tomcat8/conf
 1111  sudo usermod -a -G tomcat kamil
 1112  chown -R tomcat:tomcat /var/lib/tomcat8/
 1113  sudo chmod -R 777 /var/lib/tomcat8/conf
 1114  cd 
 1115  service --all
 1116  service -all
 1117  service 
 1118  service tomcat
 1119  service status
 1120  service status -all
 1121  service status --all
 1122  service --all status
 1123  systemctl service status
 1124  systemctl daemon-reload 
 1125  netstat -tulpn | grep :8080
 1126  sudo netstat -tulpn | grep :8080
 1127  fuser -k 8080/tcp
 1128  sudo netstat -tulpn | grep :8080
 1129  fuser -k 8080/tcp
 1130  sudo netstat -tulpn | grep :8080
 1131  sudo kill -TERM 10560
 1132  sudo netstat -tulpn | grep :8080
 1133  cd dev/
 1134  cd Internship2018/
 1135  ls
 1136  cd jersey_test/
 1137  git init
 1138  git status
 1139  git add .
 1140  git commit -am "init"
 1141  git remote add origin
 1142  git remote rename origin old-origin
 1143  git remote add origin 
 1144  https://gitlab.com/kamilkoduo/jersey_test.git
 1145  git remote add origin https://gitlab.com/kamilkoduo/jersey_test.git
 1146  git add .
 1147  git status
 1148  git push origin master
 1149  cd dev/Internship2018/
 1150  ls
 1151  cd vagrant/
 1152  ls
 1153  git init
 1154  git remote add origin 
 1155  git remote add origin https://gitlab.com/inno-cps-summer2018/vagrant.gitgit remote add origin https://gitlab.com/inno-cps-summer2018/vagrant.git
 1156  git remote add origin https://gitlab.com/inno-cps-summer2018/vagrant.git
 1157  git status
 1158  git add .
 1159  git push origin master
 1160  git status
 1161  git commit -am "init"
 1162  git status
 1163  git checkout -b dev
 1164  git push origin dev
 1165  git status
 1166  cd ..
 1167  cd jersey_test/
 1168  git init
 1169  git remote add origin https://gitlab.com/inno-cps-summer2018/jersey_test.git
 1170  git status
 1171  git add .
 1172  git commit -am "init"
 1173  git checkout -b  dev
 1174  git push origin dev 
 1175  cd ..
 1176  ls
 1177  cd vagrant/
 1178  vagrant 
 1179  vagrant up
 1180  sudo vagrant up
 1181  vagrant up
 1182  vagrant status 
 1183  vagrant up
 1184  vagrant status 
 1185  vagrant up
 1186  vagrant -v
 1187  vagrant all
 1188  vagrant destroy 
 1189  vagrant status
 1190  vagrant up
 1191  sudo vagrant up 
 1192  cd ..
 1193  cd ENVIROMENT/
 1194  vagrant status
 1195  vagrant up 
 1196  vagrant status 
 1197  vagrant halt
 1198  vagrant status 
 1199  cd ..
 1200  cd vagrant/
 1201  ls
 1202  vagrant up
 1203  cd ..
 1204  ls
 1205  cd ENVIROMENT/
 1206  vagrant status
 1207  vagrant
 1208  vagrant box
 1209  vagrant destroy 
 1210  vagrant status
 1211  vagrant up 
 1212  vagrant status
 1213  vagrant up 
 1214  vagrant kill
 1215  vagrant destroy
 1216  vagrant status
 1217  vagrant up 
 1218  vagrant reload 
 1219  мфпкфте ыефегы
 1220  vagrant status
 1221  cd dev/Internship2018/
 1222  ls
 1223  cd ENVIROMENT/
 1224  ls
 1225  vagrant up
 1226  sudo netstat -ntlp | grep :5432
 1227  vagrant up
 1228  vagrant status
 1229  vagrant halt
 1230  vagrant status 
 1231  cd ..
 1232  cd vagrant/
 1233  ls
 1234  vagrant status
 1235  cd ..
 1236  cd ENVIROMENT/
 1237  vagrant destroy 
 1238  ls
 1239  ls -la
 1240  cd ..
 1241  cd vagrant/
 1242  vagrant status
 1243  cd dev/Internship2018/vagrant/
 1244  ls
 1245  vagrant status
 1246  vagrant reload 
 1247  cd dev/Internship2018/
 1248  ls
 1249  cd vagrant/
 1250  ls
 1251  nano .gitignore
 1252  git status
 1253  git add .
 1254  git status
 1255  git push origin dev
 1256  git status
 1257  git commit -am "- .vagrant"
 1258  git push origin dev
 1259  cd dev/Internship2018/
 1260  ls
 1261  cd vagrant/
 1262  cd
 1263  cd dev/Internship2018/
 1264  cd vagrant/
 1265  ls
 1266  vagrant status 
 1267  vagrant up
 1268  cd ..
 1269  cd ENVIROMENT/
 1270  ls
 1271  ls -la
 1272  vagrant status
 1273  vagrant destroy
 1274  cd ../vagrant/
 1275  ls
 1276  ls -l
 1277  ls -la
 1278  ls -a
 1279  vagrant status
 1280  vagrant up 
 1281  git status
 1282  git reset --hard
 1283  git status
 1284  vagrant status
 1285  vagrant up 
 1286  sudo vagrant up 
 1287  cd 
 1288  sudo apt remove vagrant 
 1289  sudo apt remove virtualbox
 1290  sudo apt autoremove 
 1291  sudo apt update 
 1292  sudo apt autoremove 
 1293  sudo apt update 
 1294  sudo apt install vagrant
 1295  sudo apt install virtualbox
 1296  vagrant
 1297  vagrant -v
 1298  virtualbox -v
 1299  cd dev/Internship2018/vagrant/
 1300  vagrant status
 1301  vagrant up 
 1302  vagrant status
 1303  vagrant up 
 1304  sudo vagrant up 
 1305  virtualbox 
 1306  vagrant up 
 1307  sudo vagrant up 
 1308  vagrant up 
 1309  vagrant status
 1310  vagrant up 
 1311  vagrant provision
 1312  vagrant ssh
 1313  cd dev/Internship2018/
 1314  ls
 1315  cd vagrant/
 1316  vagrant status 
 1317  vagrant halt
 1318  vagrant status
 1319  git status
 1320  git add .
 1321  git commit -am "+ postgres_backup_all.sql"
 1322  git push origin master
 1323  cd dev/
 1324  cd Internship2018/
 1325  ls
 1326  cd vagrant/
 1327  git status
 1328  git push origin dev
 1329  vagrant up
 1330  vagrant ssh
 1331  cd dev/
 1332  ls
 1333  cd I
 1334  cd Internship2018/
 1335  ls
 1336  cd vagrant/
 1337  ls
 1338  git status
 1339  git add .
 1340  git commit -am "! fix"
 1341  git push origin dev
 1342  vagrant status
 1343  vagrant  halt 
 1344  cd dev/
 1345  ls
 1346  cd Internship2018/
 1347  ls
 1348  cd jersey_test/
 1349  ls
 1350  docker images
 1351  ls
 1352  docker build -t mybuild
 1353  docker build -t mybuild .
 1354  docker run -p 80:80 mybuild
 1355  docker run -it --rm tomcat:8.0
 1356  docker run -it --rm tomcat:8.0-jre8
 1357  docker run -it --rm -p 8888:8080 tomcat:8.0-jre8
 1358  docker build -t mybuild .
 1359  docker run -p 80:80 mybuild
 1360  cd dev/Internship2018/jersey_test/
 1361  docker build -t mybuild .
 1362  docker run -p 80:80 mybuild
 1363  mvn eclipse:clean 
 1364  mvn install clean
 1365  docker build -t mybuild .
 1366  docker run -p 80:80 mybuild
 1367  docker -ps
 1368  docker ps
 1369  docker kill 8ff9101fe03b
 1370  docker ps
 1371  sudo netstat -tulpn | grep :8080
 1372  sudo netstat -tulpn | grep :80
 1373  curl http://localhost:80/jer.hello
 1374  curl http://localhost:80/jer/hello
 1375  cd dev/
 1376  ls
 1377  cd Internship2018/
 1378  ls
 1379  cd test_app/
 1380  cd target/
 1381  ls
 1382  java -jar test_app-1.0-SNAPSHOT.war
 1383  ls
 1384  cd ..
 1385  cd target/
 1386  ls
 1387  java -jar test_app-1.0-SNAPSHOT.jar 
 1388  cd dev/Internship2018/
 1389  ls
 1390  cd jersey_test/
 1391  ls
 1392  git status
 1393  git pull origin master
 1394  git reset --hard
 1395  git pull origin dev
 1396  docker build -t mybuild .
 1397  docker run -p 80:80 mybuild
 1398  docker build -t mybuild .
 1399  docker run -p 80:80 mybuild
 1400  docker build -t mybuild .
 1401  docker run -p 80:80 mybuild
 1402  docker build -t mybuild .
 1403  docker run -p 80:80 mybuild
 1404  docker build -t mybuild .
 1405  docker run -p 80:80 mybuild
 1406  git add .
 1407  git push origin dev 
 1408  git commit -am "+ Dockerfile"
 1409  git status
 1410  nano .gitignore
 1411  git status
 1412  git add .
 1413  git status
 1414  git commit -am "+ gitignore - target"
 1415  git status
 1416  git push origin dev 
 1417  docker run -p 80:80 mybuildcd ..
 1418  cd ..
 1419  git clone https://github.com/dekses/jersey-docker-demo
 1420  ls
 1421  cd jersey-docker-demo/
 1422  ls
 1423  docker build --tag=myapp .
 1424  docker run -p 18080:8080 -t -i myapp
 1425  docker build --tag=myapp .
 1426  docker run -p 18080:8080 -t -i myapp
 1427  sudo apt install eclipse
 1428  cd ..
 1429  ls
 1430  cd test_app/
 1431  docker build --tag=myapp .
 1432  docker run -p 18080:8080 -t -i myapp
 1433  docker build --tag=myapp .
 1434  docker run -p 80:80 -t -i myapp
 1435  docker build --tag=myapp .
 1436  docker run -p 80:80 -t -i myapp
 1437  docker build --tag=myapp .
 1438  docker run -p 80:80 -t -i myapp
 1439  docker
 1440  docker ps
 1441  docker run -p 80:80 -t -i myapp
 1442  docker build --tag=myapp .
 1443  docker run -p 80:80 -t -i myapp
 1444  docker build --tag=myapp .
 1445  docker run -p 80:80 -t -i myapp
 1446  docker ps
 1447  docker kill lms_db_1 
 1448  docker ps
 1449  cd dev/Internship2018/
 1450  ls
 1451  cd test_app/
 1452  ls
 1453  git init
 1454  git remote add origin  https://gitlab.com/inno-cps-summer2018/test_app.git
 1455  git commit -am "init"
 1456  git add .
 1457  git commit -am "init"
 1458  git push origin master
 1459  cd dev/Internship2018/test_app/
 1460  ls
 1461  cd web/
 1462  cd ..
 1463  cd web/WEB-INF/
 1464  ls
 1465  cd ..
 1466  cd WEB-INF/
 1467  cd .. ..
 1468  cd ..
 1469  docker build --tag=myapp .
 1470  docker run -p 80:80 -t -i myapp
 1471  docker build --tag=myapp .
 1472  docker run -p 80:80 -t -i myapp
 1473  docker build --tag=myapp .
 1474  docker run -p 80:80 -t -i myapp
 1475  docker build --tag=myapp .
 1476  docker run -p 80:80 -t -i myapp
 1477  docker build --tag=myapp .
 1478  docker run -p 80:8080 -t -i myapp
 1479  docker build --tag=myapp .
 1480  docker run -p 80:8080 -t -i myapp
 1481  docker build --tag=myapp .
 1482  docker run -p 80:8080 -t -i myapp
 1483  git status
 1484  git add .
 1485  git commit -am "commit"
 1486  git status
 1487  git push origin master
 1488  docker build --tag=myapp .
 1489  docker run -p 80:8080 -t -i myapp
 1490  docker build --tag=myapp .
 1491  docker run -p 80:8080 -t -i myapp
 1492  cd dev/Internship2018/test_app/
 1493  docker build --tag=myapp .
 1494  docker run -p 80:8080 -t -i myapp
 1495  docker build --tag=myapp .
 1496  docker run -p 8080:8080 -t -i myapp
 1497  docker build --tag=myapp .
 1498  docker run -p 8080:8080 -t -i myapp
 1499  docker build --tag=myapp .
 1500  docker run -p 8080:8080 -t -i myapp
 1501  docker build --tag=myapp .
 1502  docker run -p 8080:8080 -t -i myapp
 1503  docker build --tag=myapp .
 1504  docker run -p 8080:8080 -t -i myapp
 1505  docker build --tag=myapp .
 1506  docker run -p 80:8080 -t -i myapp
 1507  docker build --tag=myapp .
 1508  docker run -p 80:8080 -t -i myapp
 1509  git status
 1510  git add .
 1511  git commit -am "commit"
 1512  git push  origin master 
 1513  sudo apt-cache search tomcat
 1514  sudo apt install tomcat8
 1515  sudo apt autoremove 
 1516  sudo apt remove tomcat8
 1517  cd /
 1518  ls
 1519  cd /etc/
 1520  ls
 1521  cd ...
 1522  cd ..
 1523  cd 
 1524  cp Apps/eclipse/jee-oxygen/eclipse/Eclipse.desktop /usr/share/applications/
 1525  sudo cp Apps/eclipse/jee-oxygen/eclipse/Eclipse.desktop /usr/share/applications/
 1526  cd /usr/share/
 1527  ls
 1528  cd applications
 1529  ls
 1530  nano postman.desktop
 1531  sudo nano postman.desktop
 1532  sudo nano google-chrome.desktop 
 1533  sudo nano opera.desktop 
 1534  ls
 1535  cat postman.desktop 
 1536  rm postman.desktop 
 1537  sudo rm postman.desktop 
 1538  vim
 1539  nano test.txt
 1540  cd dev/Internship2018/
 1541  ls
 1542  git clone https://gitlab.com/inno-cps-summer2018/smef.git
 1543  cd smef/
 1544  ls
 1545  touch README.md
 1546  git add README.md
 1547  git commit -m "add README"
 1548  git push -u origin master
 1549  git checkout -b develop
 1550  git push origin develop
 1551  git commit -am "init dev"
 1552  git status
 1553  ls
 1554  postgresql
 1555  postman 
 1556  psql 
 1557  cd dev/Internship2018/database/
 1558  ls
 1559  sudo -i -u postgres
 1560  sudo netstat -lpn |grep :8080
 1561  kill 7405
 1562  sudo netstat -lpn |grep :8080
 1563  cd dev/Internship2018/database/
 1564  sudo -u postgres psql postgres
 1565  sudo -i -u postgres
 1566  sudo netstat -lpn |grep 
 1567  sudo netstat -lpn |grep:5432
 1568  sudo netstat -lpn |grep : 5432
 1569  sudo netstat -lpn |grep :5432
 1570  sudo apt remove postgresql
 1571  sudo apt install postgresql
 1572  sudo netstat -lpn |grep :5432
 1573  cd dev/Internship2018/database/
 1574  cut -d: -f1 /etc/passwd
 1575  sudo passwd postgres
 1576  cut -d: -f1 /etc/passwd
 1577  sudo -u postgres psql
 1578  clean
 1579  clear
 1580  sudo apt remove postgresql
 1581  sudo apt install  postgresql
 1582  su - postgres
 1583  sudo -u postgres psql
 1584  sudo -u postgres createuser devkamil
 1585  sudo -u postgres psql
 1586  sudo netstat -lpn |grep :5432
 1587  kill 1985
 1588  sudo kill 1985
 1589  sudo netstat -lpn |grep :5432
 1590  sudo -u postgres psql
 1591  sudo netstat -lpn |grep :5432
 1592  sudo -u postgres psql
 1593  sudo apt update
 1594  sudo apt install postgresql postgresql-contrib
 1595  ls /etc/postgresql/9.6/main/
 1596  service postgresql
 1597  service postgresql status 
 1598  service postgresql start
 1599  service postgresql status 
 1600  service postgresql 
 1601  service postgresql stop
 1602  service postgresql status 
 1603  service postgresql start
 1604  sudo su postgres 
 1605  dropdb 'postgres'
 1606  sudo dropdb 'postgres'
 1607  sudo -u postgres dropdb 'postgres'
 1608  sudo service postgresql restart 
 1609  sudo -u postgres dropdb 'postgres'
 1610  dpkg -1 | grep postgres
 1611  dpkg -l | grep postgres
 1612  sudo apt --purge remove postgresql postgresql-9.6  postgresql-client-common postgresql-client-9.6 postgresql-common  postgresql-contrib postgresql-contrib-9.6 
 1613  ls /etc/postgresql/
 1614  sudo rm -rf /var/lib/postgresql/
 1615  sudo rm -rf /var/log/postgresql/
 1616  sudo rm -rf /etc/postgresql/
 1617  sudo apt install postgresql postgresql-contrib
 1618  service postgresql
 1619  service postgresql status
 1620  sudo su postgres 
 1621  cd dev/Internship2018/vagrant/
 1622  vagrant up
 1623  netstat -lpn grep ^5432
 1624  netstat -lpn grep :5432
 1625  netstat -lpn | grep :5432
 1626  sudo netstat -lpn | grep :5432
 1627  kill 2547
 1628  sudo kill 2547
 1629  vagrant up
 1630  vagrant ssh
 1631  cd dev/Internship2018/vagrant/
 1632  vagrant up
 1633  vagrant ssh
 1634  vagrant up
 1635  vagrant ssh
 1636  cd dev/Internship2018/
 1637  ls
 1638  cd vagrant/
 1639  vagrant ssh
 1640  vagrant up
 1641  vagrant ssh
 1642  psql -U postgres 
 1643  netstat -lpn |  grep :5432
 1644  sudo netstat -lpn |  grep :5432
 1645  kill 22792
 1646  sudo netstat -lpn |  grep :5432
 1647  cd dev/Internship2018/database/
 1648  psql -U postgres
 1649  cd dev/Internship2018/vagrant/
 1650  vagrant up
 1651  vagrant ssh
 1652  cd 
 1653  cd dev/Internship2018/
 1654  ls
 1655  cd smef/
 1656  ls
 1657  cd api/
 1658  ls
 1659  cd src/
 1660  cd main/
 1661  ls
 1662  cd java/
 1663  ls
 1664  cd com/smef/api/
 1665  ls
 1666  cd
 1667  cd dev/Internship2018/smef/api/
 1668  git init 
 1669  git add remote origin https://gitlab.com/inno-cps-summer2018/api
 1670  git add remote origin https://gitlab.com/inno-cps-summer2018/api.git
 1671  git remote add origin https://gitlab.com/inno-cps-summer2018/api.git
 1672  git status
 1673  git add.
 1674  git add .
 1675  git status
 1676  git commit -am "for 20 of June"
 1677  git push origin master
 1678  git push --force origin master
 1679  checkout -b dev
 1680  git checkout -b dev
 1681  git push --force origin dev
 1682  git status
 1683  git pull origin master
 1684  git status
 1685  git merge master
 1686  git checkout master
 1687  git pull origin master
 1688  git reset --hard
 1689  git status
 1690  git pull origin master
 1691  git init 
 1692  git remote add origin https://gitlab.com/inno-cps-summer2018/api.git
 1693  git add .
 1694  git commit "for 20 of June"
 1695  git status
 1696  git commit -am "for 20 of June"
 1697  git status
 1698  git push origin master
 1699  git checkout develop
 1700  git checkout -b develop
 1701  git pull origin master
 1702  git push origin master
 1703  git push origin develop 
 1704  cd dev/Internship2018/vagrant/
 1705  vagrant up
 1706  cd 
 1707  cd dev/Internship2018/smef/api/
 1708  git status
 1709  git checkout develop
 1710  git add .
 1711  git status
 1712  git commit -am "+ [NOT WORKING] some code for marshalling and validation"
 1713  git push origin develop
 1714  cd dev/Internship2018/smef/api/
 1715  git status
 1716  git reset --hard
 1717  cd dev/Internship2018/
 1718  cd smef/api/
 1719  git status
 1720  git checkout master
 1721  git reset --hard
 1722  git checkout master 
 1723  git status
 1724  git git reset --hard
 1725  gitreset --hard
 1726  git reset --hard
 1727  git status
 1728  git add .
 1729  git status
 1730  cd ..
 1731  cd vagrant/
 1732  vagrant up
 1733  vagrant ssh
 1734  cd dev/Internship2018/smef/api/
 1735  git status
 1736  ls -la
 1737  nano .gitignore
 1738  git status
 1739  git add .
 1740  git status
 1741  nano .gitignore 
 1742  git status
 1743  git add .gitignore 
 1744  git status
 1745  nano .gitignore 
 1746  git status
 1747  git add .gitignore 
 1748  git status
 1749  git commit "! code in smefs"
 1750  git commit -am "! code in smefs"
 1751  git push origin master
 1752  git status
 1753  git add .
 1754  git status
 1755  git commit -am "+ stringparser"
 1756  git push origin master
 1757  cd dev/Internship2018/
 1758  ls
 1759  cd smef/api/
 1760  git status
 1761  git checkout develop 
 1762  git commit -am "+ String Parser + some code redone"
 1763  git status
 1764  git add .
 1765  git status
 1766  git commit "+ files"
 1767  git commit -am "+ files"
 1768  git status
 1769  git push origin master
 1770  cd dev/Internship2018/smef/api/
 1771  git status
 1772  git add .
 1773  git commit -am " some work"
 1774  git push origin master
 1775  cd dev/Internship2018/smef/api/
 1776  git status
 1777  git add .
 1778  git commit -am "+ metric db + api fixes"
 1779  cd dev/Internship2018/
 1780  cd vagrant/
 1781  vagrant up
 1782  vagrant ssh
 1783  cd dev/Internship2018/vagrant/
 1784  vagrant up
 1785  vagrant ssh
 1786  cd dev/Internship2018/
 1787  cd vagrant/
 1788  vagrant up
 1789  vagrant ssh
 1790  cd 
 1791  cd dev/Internship2018/
 1792  cd smef/
 1793  cd api/
 1794  ls
 1795  la -la
 1796  git status
 1797  git add .
 1798  git status
 1799  git commit -am "Code was redone"
 1800  git status
 1801  git push origin master
 1802  git status
 1803  git add .
 1804  git commit -am "! codestyle"
 1805  git push origin master
 1806  git status
 1807  git add .
 1808  git commit -am "! fix"
 1809  git status
 1810  git push origin master
 1811  cd 
 1812  cd dev/Internship2018/
 1813  ls
 1814  cd vagrant/
 1815  vagrant up
 1816  vagrant ssh
 1817  cd ..
 1818  cd smef/api/
 1819  git status
 1820  git add .
 1821  git commit -am "! fix"
 1822  git push origin master
 1823  cd dev/Internship2018/smef/a
 1824  cd dev/Internship2018/smef/api/
 1825  git status
 1826  cd dev/Internship2018/
 1827  cd smef/api/
 1828  git status
 1829  git add .
 1830  git commit -am "! pom.xml"
 1831  git push origin master
 1832  cd ..
 1833  cd vagrant-old/
 1834  vagrant up
 1835  vagrant ssh
 1836  cd dev/Internship2018/smef/api/
 1837  git status
 1838  git commit -am "!"
 1839  git push origin master
 1840  cd dev/Internship2018/
 1841  ls
 1842  sudo rm vagrant
 1843  sudo rmdir vagrant
 1844  sudo rmdir -r  vagrant
 1845  sudo rm -r  vagrant
 1846  ls
 1847  cd smef/
 1848  ls
 1849  cd api/
 1850  git status
 1851  nano .gitignore 
 1852  git rm --cached .idea/
 1853  git rm --cached -r .idea/
 1854  git rm --cached -r target/
 1855  git status
 1856  git commit -am "! gitignore:
 1857  "
 1858  git status
 1859  nano ..gitignore.swp 
 1860  git status
 1861  nano .gitignore 
 1862  cd dev/Internship2018/vagrant-old/
 1863  vagrant up
 1864  vagrant status
 1865  vagrant рфде
 1866  vagrant halt
 1867  cd dev/Internship2018/smef/api/
 1868  git status
 1869  nano .gitignore 
 1870  status
 1871  git status
 1872  nano .gitignore 
 1873  git status
 1874  git add .
 1875  git commit -am "! gitignore"
 1876  git status
 1877  git push origin master 
 1878  git status
 1879  git commit -am "! structure"
 1880  git add .
 1881  git commit -am "! fix"
 1882  git status
 1883  git push origin master
 1884  git status
 1885  git add .
 1886  git status
 1887  git commit -am "+ jaxb + validation untested"
 1888  git push origin master
 1889  git status
 1890  cd ..
 1891  cd vagrant
 1892  vagrant halt
 1893  vagrant status
 1894  cd ..
 1895  cd folder/
 1896  vagrant up
 1897  sudo lsof -i :8000
 1898  vagrant up
 1899  vagrant halt
 1900  cd dev/Internship2018/
 1901  ls
 1902  cd folder/
 1903  vagrant up
 1904  vagrant provision 
 1905  cd dev/Internship2018/
 1906  ls
 1907  cd vagrant
 1908  ls
 1909  cd ..
 1910  cd folder/
 1911  ls
 1912  cd api-master/
 1913  ls
 1914  cd target/
 1915  ls
 1916  cd ..
 1917  ls
 1918  cd src/
 1919  ls
 1920  cd main/
 1921  cd java/com/smef/
 1922  ls
 1923  cd api/
 1924  ls
 1925  cat ApiMetricStore.java 
 1926  cd ..
 1927  vagrant up
 1928  vagrant ыыр
 1929  vagrant ssh
 1930  cd dev/Internship2018/smef/api/
 1931  git status
 1932  git add .
 1933  git commit -am "+ fixes"
 1934  git push origin master
 1935  git status
 1936  git add .
 1937  git status
 1938  git commit -am "! fix"
 1939  git push origin master
 1940  cd dev/Internship2018/
 1941  ls
 1942  cd folder/
 1943  ls
 1944  vagrant provision
 1945  vagrant ssh
 1946  cd dev/Internship2018/
 1947  ls
 1948  cd folder/
 1949  vagrant provision
 1950  cd dev/Internship2018/folder/
 1951  vagrant ssh
 1952  cd ..
 1953  cd vagrant-old/
 1954  vagrant up
 1955  vagrant status
 1956  vagrant ssh
 1957  cd dev/Internship2018/smef/api/
 1958  cd dev/Internship2018/vagrant-old/
 1959  vagrant up
 1960  vagrant ssh
 1961  cd dev/Internship2018/smef/api/
 1962  git status
 1963  git add .
 1964  git commit -am "! fix"
 1965  git status
 1966  git pull
 1967  git checkout voice_messadge_hater 
 1968  git status
 1969  git checkout master
 1970  git merge voice_messadge_hater 
 1971  git status
 1972  cd ..
 1973  cd .
 1974  cd ..
 1975  cd vagrant-old/
 1976  vagrant ssh
 1977  cd ..
 1978  cd smef/api/
 1979  git status
 1980  git add 
 1981  git add .
 1982  git commit -am "! fix"
 1983  git status
 1984  git push origin master
 1985  git status
 1986  ls
 1987  cd Downloads/
 1988  ls
 1989  cp SetupAvtoex.exe /media/storage/
 1990  sudo cp SetupAvtoex.exe /media/storage/
 1991  sudo fsck.vfat -a /media/storage/
 1992  fdisk -l | grep 'Disk /dev/sd'
 1993  sudo fdisk -l | grep 'Disk /dev/sd'
 1994  fdisk -l | grep 'Disk /dev/sd'
 1995  sudo chown -R kamil:kamil /media/storage/
 1996  cd /
 1997  cd etc/
 1998  ls
 1999  cat fstab
 2000  cd dev/
 2001  ls
 2002  cd o
 2003  cd OS_labs/
 2004  ls
 2005  cd week1/
 2006  cd /usr/bin/
 2007  ls
 2008  ls --sort 
 2009  ls --sort=-U
 2010  ls --sort=none
 2011  ls -U
 2012  ls
 2013  ls --sort=none
 2014  cd 
 2015  ls
 2016  ls -U
 2017  ls --sort=none
 2018  ls --sort=name
 2019  man sort
 2020  ls 
 2021  ls | sort -r
 2022  ls | sort 
 2023  ls | sort -r | grep d
 2024  ls | sort -r | grep gss
 2025  ls | sort -r | grep gcc
 2026  ls | sort -r | grep pp
 2027  ls | sort -r | grep Apps
 2028  ls | sort -r | grep gss
 2029  ls | sort -r | grep gcc
 2030  cd /usr/bin/
 2031  ls | sort -r | grep gcc
 2032  ls | sort -r | grep gcc > ~/dev/OS_labs/week1/ex1.txt
 2033  cd
 2034  cd dev/
 2035  cd OS_labs/
 2036  cd week1/
 2037  ls
 2038  history
 2039  history > ex2.txt
