Hello from parent [6816 - 800]
Hello from child [0 - 800]
Hello from parent [6818 - 800]
Hello from child [0 - 800]
Hello from parent [6820 - 800]
Hello from child [0 - 800]
Hello from parent [6822 - 800]
Hello from child [0 - 800]
Hello from parent [6824 - 800]
Hello from child [0 - 800]
Hello from parent [6826 - 800]
Hello from child [0 - 800]
Hello from parent [6828 - 800]
Hello from child [0 - 800]
Hello from parent [6830 - 800]
Hello from child [0 - 800]
Hello from parent [6832 - 800]
Hello from child [0 - 800]
Hello from parent [6834 - 800]
Hello from child [0 - 800]
